Lab 2: Data Tidying
…
Fort Lauderdale
Cocktail Classics
1
Light Rum

where the data-type of Ingredient_Rank is an integer. Hint: Use the parse_number() function in mutate after your initial pivot.

cocktail1 <- cocktail |> pivot_longer(cols = ingredient1:ingredient6, names_to = "Ingredient_Rank", names_transform = readr::parse_number, values_to = "Ingredient", values_drop_na = TRUE)

cocktail1

# A tibble: 3,934 × 4
   name            category              Ingredient_Rank Ingredient         
   <chr>           <chr>                           <dbl> <chr>              
 1 Gauguin         Cocktail Classics                   1 Light Rum          
 2 Gauguin         Cocktail Classics                   2 Passion Fruit Syrup
 3 Gauguin         Cocktail Classics                   3 Lemon Juice        
 4 Gauguin         Cocktail Classics                   4 Lime Juice         
 5 Fort Lauderdale Cocktail Classics                   1 Light Rum          
 6 Fort Lauderdale Cocktail Classics                   2 Sweet Vermouth     
 7 Fort Lauderdale Cocktail Classics                   3 Juice of Orange    
 8 Fort Lauderdale Cocktail Classics                   4 Juice of a Lime    
 9 Apple Pie       Cordials and Liqueurs               1 Apple schnapps     
10 Apple Pie       Cordials and Liqueurs               2 Cinnamon schnapps  
# ℹ 3,924 more rows
…
# Sort ingredients alphabetically
sorted_ingredients <- cocktail1 %>%
  arrange(Ingredient) %>%
  distinct(Ingredient)

# Print the sorted ingredients (you'll need to visually inspect this output)
print(sorted_ingredients)

# A tibble: 673 × 1
   Ingredient                             
   <chr>                                  
 1 100-proof Vodka                        
 2 151-Proof Rum                          
 3 17-year-old J. Wray and Nephew Ltd. Rum
 4 7-Up                                   
 5 Absinthe                               
 6 Absinthe Substitute                    
 7 Absinthe or pastis                     
 8 Acai berry flavored vodka              
 9 African rum                            
10 Agave nectar                           
# ℹ 663 more rows
…
